<?xml version="1.0" encoding="UTF-8" standalone="no"?>
<svg
   xmlns:dc="http://purl.org/dc/elements/1.1/"
   xmlns:cc="http://creativecommons.org/ns#"
   xmlns:rdf="http://www.w3.org/1999/02/22-rdf-syntax-ns#"
   xmlns:svg="http://www.w3.org/2000/svg"
   xmlns="http://www.w3.org/2000/svg"
   xmlns:sodipodi="http://sodipodi.sourceforge.net/DTD/sodipodi-0.dtd"
   xmlns:inkscape="http://www.inkscape.org/namespaces/inkscape"
   version="1.1"
   width="512"
   height="512"
   viewBox="0 0 512 512"
   id="svg4"
   sodipodi:docname="humidity.svg"
   inkscape:version="0.92.1 r15371">
  <metadata
     id="metadata10">
    <rdf:RDF>
      <cc:Work
         rdf:about="">
        <dc:format>image/svg+xml</dc:format>
        <dc:type
           rdf:resource="http://purl.org/dc/dcmitype/StillImage" />
      </cc:Work>
    </rdf:RDF>
  </metadata>
  <defs
     id="defs8" />
  <sodipodi:namedview
     pagecolor="#ffffff"
     bordercolor="#666666"
     borderopacity="1"
     objecttolerance="10"
     gridtolerance="10"
     guidetolerance="10"
     inkscape:pageopacity="0"
     inkscape:pageshadow="2"
     inkscape:window-width="640"
     inkscape:window-height="480"
     id="namedview6"
     showgrid="false"
     inkscape:zoom="0.4609375"
     inkscape:cx="256"
     inkscape:cy="256"
     inkscape:window-x="0"
     inkscape:window-y="31"
     inkscape:window-maximized="0"
     inkscape:current-layer="svg4" />
  <path
     d="M238.3 502.5C175.9 495.8 120.3 450.3 100.1 389.5 91.9 364.9 91.1 340.8 97.4 313.6 108.7 264.8 151.3 175.8 211.1 75.9 236.2 34 252.8 8 254.4 8c2.7 0 48.8 75.5 77.2 126.4 7.4 13.3 21.8 40.7 31.8 60.9 50.7 101.4 61.1 146.4 45.2 194.3C384.5 462.1 311.8 510.4 238.3 502.5ZM178.9 301.9c7.1-3.4 10.7-8.8 13.8-20.5 3.5-13.6 7.3-21.8 14.8-31.6 8-10.5 10.3-18 8-26.3-3.3-12.2-11.9-18.9-24.2-18.9-9.4 0-14.5 2.8-23.2 12.8-9.1 10.4-16.7 24.9-22.1 42.2-6.8 22-3.9 35.9 9 42.2 6.6 3.3 17.2 3.3 24 0.1z"
     id="path2"
     style="fill:#ffffff" />
</svg>
